module api/todo

go 1.17

require (
	github.com/davecgh/go-spew v1.1.1 // indirect
	github.com/gin-contrib/sse v0.1.0 // indirect
	github.com/gin-gonic/gin v1.7.4 // indirect
	github.com/go-playground/locales v0.14.0 // indirect
	github.com/go-playground/universal-translator v0.18.0 // indirect
	github.com/go-playground/validator/v10 v10.9.0 // indirect
	github.com/golang/protobuf v1.5.2 // indirect
	github.com/hashicorp/go-version v1.3.0 // indirect
	github.com/hashicorp/logutils v0.0.0-20150609070431-0dc08b1671f3 // indirect
	github.com/inconshreveable/mousetrap v1.0.0 // indirect
	github.com/json-iterator/go v1.1.12 // indirect
	github.com/leodido/go-urn v1.2.1 // indirect
	github.com/lib/pq v1.10.4 // indirect
	github.com/mattn/go-isatty v0.0.14 // indirect
	github.com/modern-go/concurrent v0.0.0-20180306012644-bacd9c7ef1dd // indirect
	github.com/modern-go/reflect2 v1.0.2 // indirect
	github.com/pact-foundation/pact-go v1.6.5 // indirect
	github.com/spf13/cobra v0.0.0-20160604044732-f447048345b6 // indirect
	github.com/spf13/pflag v0.0.0-20160427162146-cb88ea77998c // indirect
	github.com/steinfletcher/apitest v1.5.11 // indirect
	github.com/ugorji/go/codec v1.2.6 // indirect
	golang.org/x/crypto v0.0.0-20211108221036-ceb1ce70b4fa // indirect
	golang.org/x/sys v0.0.0-20211113001501-0c823b97ae02 // indirect
	golang.org/x/text v0.3.7 // indirect
	google.golang.org/protobuf v1.27.1 // indirect
	gopkg.in/yaml.v2 v2.4.0 // indirect
)
